<z>0</z> <x>14</x> <y>1</y> <f>light</f> <n>Kesmai Surface</n> outdoor=true
WWWWWWWWWWWWWWWWWWWWWWWWWWWWWWWWWWWWWWWWWWWWWWWWWWWWWWWWWWWWWWWWWWWWWWWWWWWWWWWWWWWWWWWWWWWWWWWWWWWWWWWWWWWWWWWWWWWWWWWWWWWWWWWWWWWWWWWWWWWWWWWWWWWWWWWWWWWWWWWWWWWWWWWWWWWWWWWWWWWWWWWWWWWWWWWWWWWWWWWWWWWWWWWWWWWWWWWWWWWWWWWWWWWWWWWWWW/\/\/\DDDDDDDDDDDDDDDD/\/\/\/\/\/\/\/\/\/\/\/\
WW~~~~~~~~~~~~~~~~~~~~~~~~~~~~~~~~~~~~~~~~~~~~~~~~~~~~~~~~~~~~~~~~~~~~~~~~~~~~~~~~~~~~~~~~~~~~~~~~~~~~~~~~~~~~~~~~~~~~~~~~~~~~~~~~~~~~~~~~~~~~~~~~~~~~~~~~~~~~~~~~~~~~~~~~~~~~~~~~~~~~~~~~~~~~~~~~~~~~~~~~~~~~~~~~~~~~~~~~~~~~~~~~~~~~~~~~~~~~/\[]. . . . . . []/\/\/\/\/\/\/\DD_][][]/\
WW~~/\/\~~~~~~~~~~~~~~~~~~~~~~~~~~~~~~~~~~~~~~~~~~~~~~~~~~~~~~~~~~~~~~~~~~~~~~~~~~~~{t{t~~~~~~~~~~~~~~~~~~~~~~~~~~~~~~~~~~~~~~~~~~~~~~~~~~~~~~~~~~~~~~~~~~~~~~~~~~~~~~~~~~~~~~~~~~~~~~~~~~~~~~~~~~~~~~~~~~~~~~~~~~~~~~~~~~~~~~~~~~~~~~~~~~~~~~{}[]--[][][][]. []/\/\/\/\/\/\dnVD[_. []/\
WW/\/\/\~~. {}{}. . ~~~~~~. . . ~~~~~~~~~~DDDDDDDDDDDDDDDDDDDDDDDDDD.t.t{tDD:t:t:tDD{t{t{t~~~~~~~~~~. . ~~~~~~~~~~~~~~~~~~. . . . ~~~~~~~~~~~~~~~~~~~~{}{}{}{}{}{}{}~~~~~~~~~~~~~~~~~~~~~~~~~~~~. . . . . ~~~~~~~~~~. ~~~~~~~~~~~~~~~~~~~~~~{}{}{}{}/\/\/\DDDDDD{}~~~~~~{}/\/\DDMM. _]/\
WW/\MM{}{}. {}{}. . . ~~~~~~. . . ~~~~{t{tDDDDDDDD.tDD.t.tDD.t|t.t|t.t~t.tDDDDDD-tDD{t{t{t. ~~~~~~. . . . ~~~~~~~~~~~~~~~~. . . . . ~~~~~~~~~~~~{}{}{}{}{}{}. {}{}{}{}. . ~~~~~~~~~~~~~~~~~~{}{}{}{}{}{}{}. . . . . {}. . . ~~~~~~~~~~~~~~~~~~~~~~/\/\/\~~~~~~~~~~~~{}{}{}/\/\[]. . []/\
WW/\a0. {}. {}{}. {}. ~~~~~~~~. ~~~~~~{t{tDDdt.tDD-tDDMMmmDDDDDD.tDDDDDD-tDD.t.t.tDD{t{t{t{}. . ~~~~~~~~. . ~~~~~~~~~~~~~~~~~~. ~~~~~~~~~~~~{}{}{}{}{}_][][]{}{}{}{}{}. . ~~~~~~~~~~~~~~~~~~~~{}{}{}{}{}{}{}{}{}{}{}{}{}{}{}. . . ~~~~~~~~{}{}{}/\/\/\{}{}~~~~~~. . . . ~~/\/\[][_. [_/\
WW/\/\. . . {}{}. {}{}{}~~~~~~~~~~~~{}{t{tDDDD-tDD.t.t.t.t.t.tDD.tDD.t.t.tDD.t.t.tDD{t{t{t{}{}. . . . ~~. . ~~~~~~~~~~~~~~~~~~~~~~~~~~~~~~~~~~. {}{}{}{}{}_]{}{}{}. . . . . . ~~~~~~~~~~~~{}{}{}{}{}{}_]_][][]_][]_][][]{}{}. ~~~~~~~~{}{}{}{}{}/\/\{}{}{}{}~~~~~~~~~~~~~~~~/\/\/\. /\/\
WW~~/\/\. . {}{}. . . {}~~~~~~~~~~~~~~{t{tDD.t.tDD.t.t.t.t.t.tDD.tDDDDDDDDDD.t.t.tDD{t{t{t{}{}{}{}. . ~~~~~~. ~~~~~~~~~~~~~~~~~~~~~~~~~~~~~~~~. {}{}{}{}{}{}{}. . . . {}{}{}{}~~~~~~~~~~~~{}{}{}{}{}{}[]. . . . {}{}. _]{}{}{}. . ~~~~~~~~{}{}{}{}{}{}{}~~~~~~~~~~~~~~~~WW~~~~~~~~. /\/\
WW~~{}{}{}{}{}{}. . {}{}. ~~~~~~~~~~~~{t{tDD.t.t|t.t.t.t.t.t.t|t.t.t.t.t.t|t.t.t.tDD{t{t{t{}{}{}{}{}. . . ~~~~~~~~{}{}~~~~{}~~~~~~~~~~~~~~~~~~~~~~{}{}{}~~~~~~~~{}{}{}{}{}{}~~~~~~~~~~~~~~~~{}{}{}{}{}. . . . []. . . []{}{}{}{}{}. ~~~~~~~~~~~~{}{}{}{}{}/\/\~~~~~~~~~~~~WW~~~~~~~~~~/\
WW~~~~{}{}{}{}{}. {}{}{}. ~~~~~~~~~~~~~~.tDDDDDDDDDDDD-t-tDDDDDDDDDDDDDDDDDDDDDDDDDD{t{t{t{}{}{}{}{}{}. . ~~~~{}{}{}{}{}{}{}{}~~~~~~~~~~~~~~~~~~~~~~~~~~~~~~~~~~{}{}{}{}{}{}~~~~~~~~~~~~~~~~{}{}{}{}{}_][][]_]_]_][]_][]{}{}{}{}. . ~~~~~~~~~~{}{}{}{}{}{}/\/\~~~~~~~~~~~~WWWW~~~~~~~~/\
WW~~~~~~{}{}{}. {}{}{}{}~~~~~~~~~~~~{}{t.t{t.t.t.t.t.t.t.t.t.to .t.t.t.t.t.t.t.t.t{t{t{t{t{}{}{}{}{}{}{}{}{}{}{}{}{}~~{}{}{}{}{}~~~~~~~~~~~~~~~~~~~~~~~~~~~~~~~~~~~~{}{}{}{}{}~~~~~~~~{}{}{}{}. {}{}{}{}{}{}{}{}{}{}{}{}{}{}{}. ~~~~~~~~~~~~{}{}{}{}{}/\{}{}/\/\~~~~~~~~~~~~WWWWWW~~~~/\
WW~~~~~~~~{}{}. {}{}{}~~~~~~~~~~~~~~{}DDDDDDDDDD.t.t.t.t.t.t.t.tDDDDDDDDDD.tDDDD-tDDDD{t{t{}{}{}{}{}{}{}{}{}{}{}{}{}~~{}~~{}{}{}. ~~~~~~~~~~~~~~~~~~~~~~~~~~~~~~~~~~~~{}{}~~~~~~~~~~~~~~~~~~{}{}{}{}{}~~~~{}{}{}{}. . {}{}{}{}{}{}. ~~~~~~~~~~~~~~~~~~/\/\{}{}{}{}{}{}{}{}~~~~~~WWWWWWWW
WW~~~~~~{}{}{}. {}{}{}{}~~~~~~~~{}{}{}DD.t.t.tDD.t.t~t~t~t~t.t.tDD.t.t.tDD.tDD.t.t.tDD{t{t{}{}{}{}~~{}{}{}{}{}{}{}~~{}~~{}{}{}. . . ~~~~~~~~~~~~~~~~~~~~~~~~~~~~~~~~~~~~~~~~~~~~~~~~~~~~{}{}{}~~~~~~~~~~{}{}{}{}{}~~::~~~~{}{}{}{}~~~~~~~~~~~~~~~~~~~~~~~~~~~~~~~~~~~~{}{}{}~~~~~~~~~~WW
WW~~~~~~~~{}{}. . {}{}{}. ~~~~~~{}{}{}DD==CC==DD.t.t~t~t~t~t.t.t|t.tBR.tDD.tDDDDDDDDDD{t{t{}{}{}{}{}~~{}{}{}{}{}{}. . . . . . . . ~~~~~~~~~~~~~~~~~~~~~~~~~~~~~~~~~~~~~~~~~~~~~~~~~~{}{}{}~~~~~~~~~~~~~~~~~~~~~~~~~~::~~~~~~~~{}{}{}{}~~~~~~~~~~~~~~~~~~~~~~~~~~~~~~~~~~~~~~~~~~~~~~~~WW
WW~~~~~~~~~~~~{}. {}. . ~~~~~~~~~~{}{}SD.t.t.t|t.t.t~t~t~t~t.t.tDD.t.t.tDD.tDD.tDDDDDD{t{t{}{}{}{}{}~~~~~~~~~~{}. . . . . . ~~~~~~~~~~~~~~~~{}{}~~{}{}~~~~~~~~~~~~~~~~~~~~~~~~~~~~~~~~~~~~~~~~~~~~~~~~~~~~~~~~~~~~~~~~~~~~~~~~{}{}{}. ~~~~~~~~~~~~{}/\~~~~~~~~~~~~~~~~~~~~~~~~~~~~~~~~WW
WW~~~~~~~~~~~~~~. . . . ~~~~~~~~~~{}DDDDDDDDDDDDo .t.t.t.t.t.t.tDDDDDDDDDD.tDDCCDDDD{t{t{t{}{}{}. . . . . {}{}~~::~~~~~~~~~~~~~~~~~~~~~~~~~~~~{}{}{}{}~~~~~~~~~~~~~~~~~~~~~~~~~~~~~~~~~~~~~~{}{}~~~~~~{}{}{}{}{}{}~~~~~~~~~~~~~~~~{}{}. ~~~~~~~~~~~~{}~~~~~~~~~~~~~~~~~~~~~~~~~~~~~~~~WW
WW~~~~~~~~~~. {}. . . ~~~~~~~~~~~~{}DDMR.t|t.t.t.t.t.t.t.t.t.t.t.t.t.t.t.t.t|t.t.tDD{t{t.t. . . . {}{}{}. {}{}{}. {}{}~~~~~~~~~~~~~~~~~~~~~~~~~~~~~~~~~~~~~~~~~~~~~~~~~~~~~~~~~~~~~~~~~~~~{}{}{}{}~~{}{}{}{}{}{}{}{}{}~~~~~~~~{}{}. . ~~~~~~~~~~~~~~~~~~~~~~~~~~~~~~~~~~~~~~~~~~~~~~~~WW
WW~~~~~~~~~~~~~~::~~{}~~~~~~~~{}{}{}DD.t.tDDutDDDDDDDD.t.tDDDDDDDDDD.t.t.t{tDDDDDDDD{t{t.t. {}{}{}. {}{}. . . . . {}{}{}{}{}~~~~~~~~~~{}{}{}~~~~~~~~~~~~~~{}{}{}{}{}~~~~~~~~~~~~~~~~~~~~~~~~~~{}{}{}{}{}{}{}{}{}{}{}{}{}{}~~{}{}{}. ~~~~~~~~~~~~~~~~~~~~~~~~~~~~~~~~{}{}{}~~~~~~~~~~~~WW
WW~~~~~~~~~~~~~~::~~~~~~~~~~~~{}{}{}DD.t.tDDDDDD.t.t|t.t.tDD.t.t.tDD.t.t.t.t.t.t.t.t{t.t.t{}{}. {}. {}{}{}. {}{}{}{}{}{}{}{}{}{}~~~~{}{}{}{}{}{}{}{}{}{}{}{}{}{}{}{}. . . ~~~~~~~~~~~~~~~~~~{}{}{}{}{}{}{}{}{}{}{}{}{}{}{}{}{}~~~~~~~~~~~~~~~~~~~~~~{}{}{}{}{}{}{}~~~~{}{}~~~~~~~~~~~~WW
WW~~~~~~~~~~~~. . ~~~~~~. {}{}{}{}{}DDDDDDDD. DD.t.tDD.t.tDD.t.t.tDD.tDDDDDDDD.t{t{t.t.t.t{}. {}. TT{}. {}. {}{}{}{}{}{}{}{}{}{}{}{}{}{}{}{}{}{}{}{}{}{}{}{}{}{}. . . . . . ~~{}~~~~{}{}{}{}{}{}{}{}{}{}{}{}{}{}{}{}{}{}{}{}{}{}{}~~~~~~~~~~~~~~{}{}{}{}{}{}{}{}{}{}{}~~~~~~~~~~~~~~~~WW
WW~~~~. . {}{}. . . . . . {}{}{}{}{}DD.t.tDDCCDDDDCCDD.t.tDDDDCCDDDD.tDD.tMMDD.t.t.t.t.t{t{}{}TT. . . TT{}. {}{}{}{}~~~~{}~~{}~~{}{}{}{}{}{}{}{}{}{}{}{}{}{}{}{}{}{}{}. {}{}{}~~{}{}{}{}. . . {}{}{}{}{}{}{}{}{}{}{}{}{}{}{}{}{}{}{}{}{}{}{}{}{}{}{}{}{}{}{}{}{}{}{}{}~~~~~~~~~~~~~~~~WW
WW~~~~~~{}{}{}. {}{}{}{}{}{}{}{}{}{}DD.t.tDD.t.tDD.tDD.t.t|t.t.t.tDD.t|t.t.tDD.tDDDDDDDD{t{}. . . . . . {}. . {}{}. . {}{}{}{}{}{}{}{}{}{}{}{}_][][]. [_{}{}{}{}{}{}{}{}{}~~{}~~~~{}~~{}. . . {}{}{}{}{}{}{}{}{}{}{}{}{}{}{}{}{}{}{}{}{}{}{}{}{}{}{}{}{}{}{}{}{}{}{}{}~~~~~~~~~~~~~~~~WW
WW~~~~. . {}. . {}{}{}{}~~~~{}{}{}{}DDDD-tDDDD-tDDDDDD.t.tDDDDDDDDDD.tDDDDDDDD.tDD.t.tDD{t{}TT. . MM. . TT{}. {}{}. ~~{}{}~~{}{}_][]. []{}{}{}[]{}gg{}[]{}{}{}{}{}{}{}. {}{}~~{}{}~~{}. . . {}{}{}{}{}{}{}{}{}{}{}{}{}{}{}{}{}{}{}{}{}{}{}{}{}{}{}{}. . . . _]. . . . . . ~~~~~~~~~~~~WW
WW~~~~~~~~{}. {}{}{}~~~~~~~~{}{}{}.t.t.t.t.t.t.t.t.t.t.t.t.t.t.t.t.t.t.t.t.t.t.t|t.t.tDD{t{}{}{}. . . {}{}{}. . . . {}~~{}~~{}~~[]MM{}[]{}{}{}{}_]. . _]{}{}{}{}{}{}{}{}. {}~~~~{}{}~~{}. . . . {}{}{}{}{}{}{}{}{}{}{}{}{}. {}{}{}{}{}{}{}{}{}{}. . . . []. .\.\[]. . {}{}. ~~~~~~~~~~WW
WW~~~~~~~~~~. {}{}{}{}~~~~~~{}{}. .t{t{t{t{t{t{t{t{to .t.tDDDDDDDDDDDD.t.t{t.to DDDDDDDD{t{}{}TT. . {}TT{}{}. . . ~~{}{}~~{}{}~~[]. _]{}{}{}{}{}{}{}{}{}{}{}{}{}{}{}. . . ~~{}~~{}~~{}~~~~. . . {}{}{}{}{}{}{}{}{}{}{}{}{}{}{}{}{}{}{}{}{}{}{}{}{}. . . . .\.\. . . . . {}{}. ~~~~~~~~WW
WW~~~~. {}{}. {}{}{}{}{}{}~~~~~~. {t{t{t{t{t{t{t{t{t{t.t.tDD.t.t.t.tDD.t{t.t{t.t{t{t{t{t{t{}{}{}{}TT{}{}{}{}{}{}. . {}~~{}{}~~{}~~{}{}{}{}{}{}{}{}{}{}{}{}{}{}{}{}{}{}{}{}{}~~{}~~~~~~{}~~{}{}. . {}{}{}{}{}{}{}{}{}{}{}{}{}{}{}{}{}{}{}{}{}{}{}{}. . []. . MM. . []. . . {}{}. ~~~~~~WW
WW~~~~. . . {}{}{}{}{}{}{}{}{}~~. {t{t{t%%%%{t{t{t.t.t.t.tDD.t.t.t.tDD.tDD-tDDDDDDDDDDDD{t{}[]{}[][_{}{}{}{}{}{}{}. {}{}{}. {}{}~~{}{}{}{}{}{}{}{}{}{}{}{}{}{}{}{}. . . . {}~~~~~~~~~~~~~~~~~~. . . {}. {}{}. . {}{}{}{}{}{}{}{}. {}{}. {}{}{}{}. . . . . . . .\.\. . . . . . ~~~~~~~~WW
WW~~~~. {}. {}{}{}{}{}{}{}{}. ::. {t{t{t{t{t%%%%{t{t.t.t.tDDDDCC==DDDD.tDD.tSD.t.tDD.tDD{t{}[_. {}[]{}{}{}{}{}{}~~. . {}{}~~{}{}{}{}{}{}{}{}{}{}{}{}[][][][]{}. . . . . . ~~~~~~~~~~~~~~~~~~~~~~. {}{}{}{}{}{}{}{}{}{}{}. {}. . {}{}~~~~~~. . . . . . . [].\.\.\_]. . {}{}{}. ~~~~~~~~WW
WW~~~~. . . {}{}{}{}{}{}{}. . ~~{}{t{t{t{t{t%%%%%%{t.t.t.tDD.t.t.t.tDD.tDD.tDDDD-tDDCCDD{t{}[]{}{}[_{}{}{}~~~~{}~~~~. . . ::. . {}{}{}{}{}{}{}{}{}{}[]. . []. . . . . . ~~~~~~~~~~~~~~~~~~~~. . . {}{}{}{}{}{}{}{}{}{}{}{}{}{}{}{}{}~~~~~~~~~~~~. . . . . . []. . . . . . . ~~~~~~~~~~WW
WW~~. . . . . . . {}{}{}{}. ~~~~{}{t{t{t{t{t{t{tc0.t.t.t.t|t.t.t.t.tDD{tDDCCDD??????.tDD{t{}_]_][][]{}{}~~~~~~~~~~~~~~{}{}~~{}. . . . . . . (){}{}{}[]. . []{}. . . . . ~~~~~~~~~~~~~~~~~~. . {}{}{}{}{}{}{}{}{}{}{}{}{}{}{}{}{}~~~~~~~~~~~~~~~~~~~~~~. . . . ~~~~~~~~~~~~~~~~~~~~~~~~WW
WW~~[][][][][]. . {}{}{}{}. ~~{}{}{t{t{t{t{t{t.t.t.t.t.t.tDDDDDDDDDDDD{tDD.tDDdt.t.t.tDD{t{}{}{}{}{}{}{}{}~~~~~~~~{}{}. ~~~~{}{}{}. . . . . . . {}{}[][]--[]. . . . . . . {}{}~~~~~~~~~~~~~~. . . . {}{}{}{}{}{}{}{}{}{}{}{}~~~~~~~~~~~~~~~~~~~~~~~~~~~~~~~~~~~~~~~~~~~~~~~~~~~~~~~~~~WW
WW~~[]. . . | . . {}{}. . . ~~~~. {t{t{t{t{t{t{t{to .t.t.t.t.t.t.t.t.t.tDDDDDDDDDDDDDDDD{t{}{}{}{}{}{}{}{}{}~~~~~~~~{}{}~~~~{}. . . {}{}. . . . . . . . . . . . []--[][]{}{}{}{}~~~~~~~~~~~~~~~~~~. {}{}{}{}{}{}{}{}{}~~~~~~~~~~~~~~~~~~~~~~~~~~~~~~~~~~~~~~~~~~~~~~~~~~~~~~~~~~~~~~~~WW
WW~~_]. . . []. . . . . . . ~~~~. .t~~~~{t{t{t{t~~~~~~:t~~~~~~~~~~~~~~.t.t.t{t{t{t{t{t{t{t{}{}{}{}{}{}{}~~~~~~~~~~~~~~. . ~~DDDDDDDDDD{}{}{}. . . . . . ~~~~. . []. . []{}{}{}~~~~~~~~~~~~~~~~~~~~~~{}{}{}{}{}{}{}~~~~~~~~~~~~~~~~~~~~~~~~~~~~~~~~~~~~. . . ~~~~. . . . ~~~~~~~~~~~~~~WW
WW~~[]. (). []. ~~{}. . ~~. ~~~~~~~~~~~~~~~~~~~~~~~~~~:t~~~~~~~~~~~~~~~~.t.t.t{t{t{t{t{t{t{}{}{}{}{}{}{}{}{}~~~~~~~~~~~~::::DD. . . DD{}{}{}{}{}. . . . ~~~~. . []. . []{}~~~~~~~~~~~~~~~~~~~~~~~~~~~~~~~~~~~~{}{}~~~~~~~~~~~~~~~~~~~~~~~~~~~~~~~~~~~~~~. . . . . . . . . . ~~~~~~~~~~WW
WW~~[]. [][][]~~~~~~. . ~~~~~~~~~~~~~~~~~~~~~~~~~~~~~~:t~~~~~~~~~~~~~~~~~~~~~~~~~~~~~~{}~~{}{}{}{}{}~~~~~~~~~~~~~~~~~~~~~~::DDDDCC==DD. {}{}{}{}{}. . . . . . . [][][][]~~~~~~~~~~~~~~~~~~~~~~~~~~~~~~~~~~~~~~~~~~~~~~~~~~~~~~~~~~~~~~~~~~~~~~~~~~~~. . . . . . . . . . ~~~~~~~~~~~~~~WW
WW~~[]_][]~~~~~~~~~~~~~~~~~~~~~~~~~~~~~~~~~~~~~~~~~~~~~~~~~~~~~~~~~~~~~~~~~~~~~~~~~~~~~~~~~~{}{}{}~~~~~~~~~~~~~~~~~~~~~~~~::| . . . []. ~~{}~~~~~~{}{}{}{}{}~~~~~~~~~~~~~~~~~~~~~~~~~~~~~~~~~~~~~~~~~~~~~~~~~~~~~~~~~~~~~~~~~~~~~~~~~~~~~~~~~~~~~~~~~~. . . . . ~~~~~~~~~~~~~~~~~~~~~~WW
WW~~~~~~~~~~~~~~~~~~~~~~~~~~~~~~~~~~~~~~~~~~~~~~~~~~~~~~~~~~~~~~~~~~~~~~~~~~~~~~~~~~~~~~~~~~~~~~~~~~~~~~~~~~~~~~~~~~~~~~~~::[][][][][]. ~~~~~~~~~~~~~~~~~~~~~~~~~~~~~~~~~~~~~~~~~~~~~~~~~~~~~~~~~~~~~~~~~~~~~~~~~~~~~~~~~~~~~~~~~~~~~~~~~~~~~~~~~~~~~~~~~~~~~~~~~~~~~~~~~~~~~~~~~~~~~~WW
WW~~~~~~~~~~~~~~~~~~~~~~~~~~~~~~~~~~~~~~~~~~~~~~~~~~~~~~~~~~~~~~~~~~~~~~~~~~~~~~~~~~~~~~~~~~~~~~~~~~~~~~~~~~~~~~~~~~~~~~~~~~~~~~~~~~~~~~~~~~~~~~~~~~~~~~~~~~~~~~~~~~~~~~~~~~~~~~~~~~~~~~~~~~~~~~~~~~~~~~~~~~~~~~~~~~~~~~~~~~~~~~~~~~~~~~~~~~~~~~~~~~~~~~~~~~~~~~~~~~~~~~~~~~~~~~~~~~~~WW
WWWWWWWWWWWWWWWWWWWWWWWWWWWWWWWWWWWWWWWWWWWWWWWWWWWWWWWWWWWWWWWWWWWWWWWWWWWWWWWWWWWWWWWWWWWWWWWWWWWWWWWWWWWWWWWWWWWWWWWWWWWWWWWWWWWWWWWWWWWWWWWWWWWWWWWWWWWWWWWWWWWWWWWWWWWWWWWWWWWWWWWWWWWWWWWWWWWWWWWWWWWWWWWWWWWWWWWWWWWWWWWWWWWWWWWWWWWWWWWWWWWWWWWWWWWWWWWWWWWWWWWWWWWWWWWWWWWWWWWW
<z>20</z> <x>35</x> <y>17</y> <n>Kesmai Town Locker Room</n>
DDDDDD      %%%%%%
DDdtDDDDDDDD%%%%%%
DD.t.t.tMMDD%%%%%%
DD.t.t.t.t.t%%%%%%
DDLKDDDDDDDD%%%%%%
DDDDDD      %%%%%%
            %%%%%%
<z>-20</z> <x>12</x> <y>0</y> <n>Kesmai Dungeon -1</n>
/\/\/\/\/\/\/\/\/\/\/\/\/\/\/\/\/\/\/\/\/\/\/\/\/\/\/\/\/\/\/\/\/\/\/\
/\[][][][][][][][][][][][][][][][][][][][][][][][][][][][][][][][][]/\
/\[]. . . []. . [][]. . . []dn. . []. []. . . []. . . . . . . . . []/\
/\[]. . . []. . [][]. . . [][][]--[]. []. . . []. [][][][][][][]. []/\
/\[]. . . [][]--[][]. . . | . . . | . []. . . []. []. []. . . []. []/\
/\[]. . . . . . [][]--[][][][][]. []. [][][]--[]SD[]. []. . . []. []/\
/\[]--[][][][][][][]. []. . . . . []. . . . . . up[]. []. . . | . []/\
/\[]. [][][][][][][][][]. [][][][][][][][][]. . . []SD[][][][][][][]/\
/\[]. []. . . . . . . . . []. . . | . . . | . . . | . . . | . . . []/\
/\[]--[][][][][]. []. [][][]. [][][]. . . [][][][][]. . . [][][]. []/\
/\[]. . . | . . . []. . . | . . . []. . . | . . . []. . . . . []. []/\
/\[]. . . [][][]. []. . . [][][]--[][][][][][][][][][][]--[]. []. []/\
/\[]. . . []. []. []. . . []. | . . . . . . . . . . . []. []. []. []/\
/\[]. . . []. []. [][][][][]--[]. . . [][][]. []. . . []--[][][]. []/\
/\[]. . . []. []. []. . . . . []. . . []. []. []. . . []. . . []. []/\
/\[]--[]SD[]. []. []. . . . . [][][][][]. []. [][][][][]. . . [][][]/\
/\[]. []. []. . . []. . . . . | . . . []. []. . . | . SD. . . | . []/\
/\[]. []. [][][][][]. [][][][][]. . . []. []. . . []. [][][][][]. []/\
/\[]. []. SD. . . []. []. . . []. . . []. | . . . []. . . . . | . []/\
/\[]--[][][]. . . []. []. []. []. . . [][][][][][][][][][][][][]--[]/\
/\[]. . . []. . . []. []. []. []. . . . . | . | . . . dn. []. . . []/\
/\[]. . . []. . . []. []. []. [][][]. . . [][][]. . . []. []. . . []/\
/\[]. . . []. . . []. []. []. . . | . . . []. | . . . []. []. . . []/\
/\[]--[][][]--[]--[]. []. [][][][][][][][][][][][][]SD[]. []--[][][]/\
/\[]. []. . . . . []. . . []/\/\/\/\/\/\/\/\/\/\/\[]. []. []. . []/\/\
/\[]. []. . . . . []--[][][]/\/\/\/\/\/\/\/\[][][][]. []--[]. . []/\      DDDDDDDDDDDDDDDDDD
/\[]. []. . . . . []. | . []/\/\/\/\/\/\/\[][]. [_[][]. . []. . []/\      DDdn. . . []. . DD
/\[]. [][][][][][][]. []. [][]/\/\[][][][][]. [_. [_[][][][]. . DDDDDDDDDDDD. . . . []. . DD
/\[]. . . . . . . . . []. . [][][][]. . [][][]. . . . . . []. . SD. . . . | . . . . | . . DD
/\[]. [][][][][][][][][]. []. [][]. [][]. [][][]. . c1[_. []--[]DDDDDDDDDDDD--[][][][]--[]DD
/\[]. . . . . . . . . . . [][]. ~~[][][]. . [][][][][][]. | . . . []/\    DD. [][][][]. . DD
/\[]. [][][][][][][][][][][][][][]~~[][]. . [][][][_. [_. []. . . []/\    DD. []. up[]. . DD
/\[]. . . . . | . . . []. DD/\/\/\/\[][][][]. [][][]. [_. []. . . []/\    DD. []. . | . . DD
/\[]. []. . . []. . . []. DD[][][][]/\/\/\[][]. [][]. []SD[][][][][]/\    DDDDDDDDDDDDDDDDDD
/\[]. []. . pb[]. . . []. DD[]~r.r[]DD[][][][]()[][]. []. . . . . []/\
/\[]. [][][][][][][]--[]--DD[].r%%[]DD. [][]. [][][]--[][][][][]. []/\
/\[]. . . . . . . . . . . DD~r.r.r[]DD. . . [][]/\[]. . . []. []. []/\
/\[]. [][][][][]. . . . . DD.r.r.r~rDD[]. . []/\/\[]. . . []. []. []/\
/\[]. . . . dn[]. . . . . DD.r.r.r~rDD[][][][]/\/\[]. . . []. . . []/\
/\[][][][][][][][][][][][]DD[][][][]DD[][][][][][][][][][][][][][][]/\
/\/\/\/\/\/\/\/\/\/\/\/\/\/\/\/\/\/\/\/\/\/\/\/\/\/\/\/\/\/\/\/\/\/\/\
<z>-40</z> <x>13</x> <y>0</y> <n>Kesmai Dungeon -2</n>
/\/\/\/\/\/\/\/\/\/\/\/\/\/\/\/\/\/\/\/\/\/\/\/\/\/\/\/\/\
/\[][][][][][][][][][][][][][][][][][][][][][][][][][][]/\
/\[]dn. . []. . . . . . . up. . . . . | . . . []. . . []/\
/\[]. . . []. . . . . . . . . . . . . [][][]--[][][]. []/\
/\[]. . . []. . . . . . . . . . . . . []. []. . . SD. []/\
/\[]. [][][][][][][]--[][][]. [][][][][]--[]. . . [][][]/\
/\[]. []. . . . . | . SD. []. []. . . . . []. . . []. []/\/\/\/\/\/\/\
/\[]--[][][][][][][]--[][][]--[]. . . . . [][][][][]. [][][][][][][]/\
/\[]. . . | . . . . . []. . . []. . . . . | . . . . . []. . . . . []/\
/\[]. . . [][][]SD[]. []. . . []--[]. . . [][][][][]. [][][][][]--[]/\
/\[]. . . []. . . []. []. . . . . []. . . | . . . []. . . | . . . []/\
/\[][][][][]. . . []. []--[][][]. []. . . []. . . [][][][][]. . . []/\
/\[]. . . | . . . []. . . []. . . []. . . []. . . . . . . []. . . []/\
/\[][][][][][][][][]. [][][]. [][][]. [][][][][][][]. []. []. . . []/\
/\[]. . . . . | . . . []. . . []. . . []. []. . . | . []. []. . dn[]/\
/\[]. . . . . [][][][][]--[]. []. [][][]. []. . . []. []. [][][][][]/\
/\[]. . . . . []. SD. . . []. []. . . . . []. . . []. []. . . SD. []/\
/\[]--[][][]--[][][]. . . []. [][][][][]--[][][][][]. []. . . []. []/\
/\[]. . . []. . . | . . . []. . . []. []. . . | . . . []. . . []. []/\
/\[]. . . []. . . [][][]--[][][][][]--[]. . . [][][][][]. . . []. []/\
/\[]. . . []. . . . . []. . . []. . . []. . . []. . up[]. . . []. []/\
/\[]. . . []--[]--[]. [][][]. []. . . [][][]--[]. [][][]--[][][]. []/\
/\[]. . . []. []. []. . . []. []dn. . | . . . []. . . . . []. . . []/\
/\[][]--[][]. []. [][][][][][][][][][][][][][][][][][][][]DDSDDD[][]/\
/\[]. . . . . []. . . . . []/\/\DDDDDDDDDD                DD. DD              /\
/\[][][][][][][][][][][]. []DD[]DD. MM. DD                []. []        [][][]/\
/\/\/\/\/\/\/\/\/\[]. []. []DD. SD. a1. DD[][][]DD[][][][][]. []        []up[]/\
                /\[]. []--DDDD. DD. . . DD. SDdnSD. . . . SD. [][][][][]DD. []/\
                /\[]. . . DD. . DDDDSDDDDD. [][]DD[][][][][]. . . . . . | . []/\
                /\[]. . . DD. []DD. . . . [][]            [][][][][][][][][][]/\
                /\[]. . . DD. []DD[]. [][][]/\                                /\
                /\[]--[]--DD. []DD[]. [][][]/\/\
/\/\/\/\/\/\/\/\/\[]. []. DDDDwbDD[]. . . [][]/\/\
/\[][][][][][][][][]--[]. []DD. DD[]SD[][]. [][]/\
/\[]. []. . . | . . . []. []DD. DD/\/\. [][]pb[]/\
/\[]. []. . . []. . . []. []DDc1DD/\/\. /\[][][]/\
/\[]--[]. . . []. . . []. []DDDDDD/\/\/\. /\/\/\/\/\/\/\
/\[]. . . . . [][][][][]. [][][][][][][]. [_. _][_/\[_/\
/\[]. . . up. | . . . []. . . . . . . . . . . . . [__]/\
/\[][][][][][][][][][][][][][][][][][][][][][]. _]/\/\/\
/\/\/\/\/\/\/\/\/\/\/\/\/\/\/\/\/\/\/\/\/\/\/\/\/\/\/\/\
<z>-60</z> <x>1</x> <y>0</y> <f>light</f> <n>Kesmai Dungeon -3</n>
                      /\/\/\/\/\/\/\/\/\/\/\/\/\/\/\/\/\/\/\/\/\/\/\/\/\/\/\/\/\/\/\/\/\/\/\/\/\
                      /\[][][][][][][][][][][][][][][][][][][][][][][][][][][][][][][][][][][]/\
                      /\[]::up::::::~~~~~~~~~~::. . . . . . []. . . []. . . . . . . . . . . []/\
                    /\/\[]~~~~~~~~~~~~~~~~~~~~::. . . . . . []. . . [][][][][]. [][][]SD[]. []/\
                    /\[][]~~~~~~~~~~~~~~~~~~~~::. . . . . . []. . . []. . . . . []. . . []. []/\
                    /\[]~~~~~~~~~~~~~~~~~~~~~~~~[][][][][]. [][][]--[]. . . [][][]. . . []. []/\
                    /\[]~~~~~~~~~~~~~~~~~~~~~~~~. . []. . . . . []. []. . . []. []. . . | . []/\
                    /\[]~~~~~~. . . [][]~~~~~~~~. . []. [][][][][]. []. . . []. [][][][][]. []/\
                    /\[]~~~~~~. . . MM[]~~~~~~~~. . []. []. . . . . []. . . []. . . . . []. []/\
                    /\[]~~~~~~. . . [][]~~~~~~~~[]. []. []--[][][][][]. . . []. . . . . []. []/\
                    /\[]~~~~~~~~~~~~~~~~~~~~~~~~[]. []. | . . . []. . . . . []. . . . . []. []/\
                    /\[]~~~~~~~~~~~~~~~~~~~~~~~~[]. []. []. . . []. [][][][][]--[][][][][]. []/\
                    /\[][]~~~~~~~~~~~~~~~~~~~~~~[]. []. []. . . []. []. . . . . []. . . | . []/\
                    /\/\[]~~~~~~~~~~~~~~[]--[][][]--[]. [][][][][]--[]. . . . . []. . . [][][]/\
                      /\[]~~~~~~~~~~::::| . . . . . []. | . . . . . []. . . . . | . . . up. []/\
                      /\[]~~~~~~~~~~::. []. . . . . [][][]. . . . . [][][][][][][][][][][]. []/\
                      /\[]~~~~~~~~~~::. []dn. . . . | . []. . . . . []. . . . . []. dn. []. []/\
                      /\[]~~~~~~~~~~::. [][][][][][][]. [][][][]. . []. []. [][][]. . . []. []/\
                      /\[]~~~~~~~~::::. []. . . . . . . . . . . . . []. []. []. . . . . []. []/\
                      /\[]~~~~~~[][][]--[]. . . . . [][][][][][][][][]. []. []. . . [][][]. []/\
                      /\[]~~~~~~[]. . . []. . . . . []. . . . . . . | . []. []. . . []. . . []/\
                      /\[]~~~~~~[]. . . [][][][][]--[]. . . . . . . [][][]. []. . . []. . . []/\
  /\/\/\/\/\/\/\/\/\/\/\[]~~~~~~[]. . . . . . . []. | . up. . . . . . . . . | . . . []. . . []/\
  /\[][][][][][][][][][][]~~~~~~[]. . . []. []--[]--[][][][][][][][][][][][][]. . . []. . . []/\
  /\[]~~~~~~~~~~~~~~~~~~~~~~~~~~[]. . . []. []. . . []/\/\/\/\/\/\/\/\/\/\/\[]. . . | . . . []/\
  /\[]. . ~~~~~~~~~~~~[][]~~~~~~[][][]--[]. []. . . []/\/\/\/\/\/\/\/\/\/\/\[]SD[][][][][][][]/\
  /\[]. . ~~~~~~~~~~~~[][]~~~~~~. . . . []. []. . . []/\/\/\/\[][][][][][][][]. []. . . []. []/\
  /\[]. [][][][][][][][][]~~[][][][][][][]--[]. . . []/\/\/\/\[]. . . up. . | . []. . . []. []/\
  /\[]. | . . . | . . . []~~[]. . . . . . . []. . . []/\/\/\/\[]. [][][][][][]. []. . . []. []/\
  /\[]. []. . . | . []. []~~[]. []. [][][]--[][][]--[]/\[][][][]. [][][][]/\[]. []--[][][]--[]/\/\/\/\/\/\/\/\/\/\/\/\/\/\/\/\/\/\/\/\/\/\/\/\/\/\/\/\/\/\/\/\/\/\/\/\/\/\
  /\[]. []. . . | . . . []. . . []. []. []. . . | . []/\[]{}{}{}{}{}{}{}[]/\[]. []. []. . . SD. . . . . . . . . . . . . . . . . . . . . . . . . . . . . . . . . . . . pb/\
  /\[]. []--[]--[]. []. []. . . []. []. []. . . []SD[]/\{}{}{}{}[]{}{}{}{}/\[]. []. []. . . []/\/\/\/\/\/\/\/\/\/\/\/\/\/\/\/\/\/\/\/\/\/\/\/\/\/\/\/\/\/\/\/\/\/\/\/\/\/\
  /\[]. []. . . []. . . | . . . []. []. | . . . []. []/\{}{}[]~.~.~.[]{}{}/\[]. []. []. . . []/\
  /\[]. []. MM. []. []. | . . . []. []. [][][]--[]. []/\{}{}~.~.~.~.~.{}{}/\[]--[]--[][][]. []/\
  /\[]. | . . . | . . . []. . . []. []. []. . . []. []/\{}[]~.~.~.~.~.[]{}/\[]. . . | . . . []/\
  /\[]. []. MM. []. []. []--[][][]. [][][]. . . []. []/\{}{}~.~.~.~.~.{}{}/\[]. . . [][][][][]/\
/\/\[]. []. . . []. . . []. . . []. . . . . . . []. []/\{}{}[]~.~.~.[]{}{}/\[]. . . []. . . []/\
/\[]_]. [][][][][]. []. []. . . [][][][][][][][][]. []/\{}{}{}{}[]{}{}{}{}/\[]. . . []. . . []/\
/\[_. . . . . . . . . . []. . . . . . . . . . . . . []/\[]{}{}{}{}{}{}{}[]/\[]. . . | . dn. []/\
/\/\[_[][][][][][][][][][][][][][][][][][][][][][][][]/\[][][][][][][][][]/\[][][][][][][][][]/\
  /\/\/\/\/\/\/\/\/\/\/\/\/\/\/\/\/\/\/\/\/\/\/\/\/\/\/\/\/\/\/\/\/\/\/\/\/\/\/\/\/\/\/\/\/\/\/\
<z>-80</z> <x>14</x> <f>heavy</f> <n>Kesmai Dungeon -4</n>
                      /\/\/\/\/\/\/\/\/\/\/\/\/\/\/\/\/\/\/\/\/\/\/\/\
                      /\DDDDDDDDDDDDDDDDDDDDDDDDDDDDDDDDDDDDDDDDDDDDDD
                      /\DD.r.rMMDDDDDDDDDD~r~r.r.r.r~r~r:r.r.r.rMM.rDD
                      /\DD-rDDDDDDDD.r.r.r~r~r.r.r.r~r~r:r.rDD.r.r.rDD
/\/\/\/\/\/\/\/\/\/\/\/\DD.r.r~rDDDDMM.r.r:r:r.r.r.r~r:r:r.rDD.r.r.rDD
/\[][][][][][][][][][][]DD.r.r~rDDDD.r.r.r~r~r.r.r.r~r~r:r.rDDDDDDDDDD
/\[][]{}{}{}{}{}{}{}[][]DD~r~r~r~r~rDDDDDD~r~r.r.r.r~r~r:r.rDD
/\[]{}{}{}{}[]{}{}{}{}[]DDDDDDDDDDDDDDDDDDDDDDDDDDDDDDDDDD.rDD/\
/\[]{}{}[]. . . []{}{}[]/\/\/\/\/\/\/\/\/\/\/\/\/\/\/\/\[]. []/\/\/\/\/\
/\[]{}{}. . . . . {}{}[][][][][][][][][][][][][][][][][][]. [][][][][]/\
/\[]{}[]. . ::. . []. . . . | . . . . . . . . . . . . . . . . . . . []/\
/\[]{}{}. . . . . {}{}[][][][]. []. []. []. []. []. []. []. [][][]. []/\
/\[]{}{}[]. . . []{}{}[][]. []. . . . . . . . . . . . . . . []. []. []/\
/\[]{}{}{}{}[]{}{}{}{}[][]--[][][]. []--[][][]SD[][][][][]. []--[]--[]/\
/\[][]{}{}{}{}{}{}{}[][][]. . . | . []. []. . . []. . . []. []. . . []/\
/\/\[][][][][][][][][][][]. . . [][][]. []. . . [_[][]. []. []. . . []/\
  /\[]. []. . . up. [_~~SD. . . []. . . []. . . | . . . []up[]. . . []/\
  /\[]. []. [][_[_[_[_~~[][][][][]--[]. [][][][][][][]. []. []. . . []/\
  /\[]. []. [_~~~~~~~~~~[]. | . . . []. . . []. . . []. []. []. . . []/\
  /\[]. []. ~~~~~~. [_. [][][]. . . [][][][][]. [][][][][]. [][][]SD[]/\
  /\[]. . ~~~~. . . [_. . . []. . . . . . . SD. []. . . . . . . []. []/\
  /\[][][]~~[_--[][][_[][][][]. . . . . . . [][][]. [][][][][]. []. []/\
  /\[]. []~~[_. []. . . . . | . . . . . . . []. . . []. . . []. []. []/\
  /\[]. []~~~~~~~~. [][][]. [][][][][][][][][][][][][]. . . []. []. []/\
  /\[]. []. ~~~~~~. []. . . []                      []. . . | . []. []/\
  /\[]. []--~~~~~~. []. . . []                      []--[][][][][]--[]/\
  /\[]. . . ~~~~~~~~[]. . . []                      []. []. . . . . []/\
  /\[]. . . [][_[_~~[]. . . []                      [][][]. . . . . []/\
  /\[]. . . | . ~~~~[]. . . []                      []. | . . . . . []/\
  /\[][][][][]. ~~[_[]. . . []                      [][][][][]. . . []/\
  /\[]. ~~~~~~~~~~. | . . . []                      []. . . []. . . []/\
  /\[]~~~~~~~~~~~~. [][][]--[]                      [][][]. []. []--[]/\
  /\[]. ~~~~~~~~~~. []. . . []                      []. []. []. []. []/\
  /\[]~~~~~~~~~~[][][]. []. []                      []. []--[]. [][][]/\
  /\[]~~~~~~[]. []. . . []. [][][][][][][][]        []. . . []. . . []/\
  /\[]~~~~~~[]--[]. [][][]--[][]. . . . . []    [][][]. . . [][][]--[]/\
/\/\[]~~~~~~. . []. []. . . [][]. *3o *3. []    []. . . . . . . . . []/\
/\[][]~~. . . . []. []. . . SDSD. . . . . [][][][]. . . . . . . . . []/\
/\[]~~~~. . . . []. []. . . [][][][][][]??????????. . . . . . up. . []/\
/\[][][][][][][][][][][][][][]/\/\/\/\[][][][][][][][][][][][][][][][]/\
/\/\/\/\/\/\/\/\/\/\/\/\/\/\/\/\    /\/\/\/\/\/\/\/\/\/\/\/\/\/\/\/\/\/\