<z>0</z> <x>29</x> <y>36</y> // Torii Town - Surface Level 0'                                                                                                                                                                                       /\/\/\WWWW
        /\/\/\/\/\/\/\/\                  /\/\/\/\/\/\/\/\/\              /\/\/\/\/\/\          /\/\/\/\/\                /\/\/\                                            /\/\/\/\/\/\/\/\        /\/\/\/\/\/\WWWWWWWW
        /\. /\/\~~~~~~/\/\/\/\  /\/\/\/\/\/\. . . . . . . /\/\/\/\/\/\/\/\/\{}upup{}/\/\        /\{}{}{}/\/\/\/\          /\dn/\                                    /\/\/\/\/\{}{}{}{}{}{}/\/\/\/\/\/\~~~~~~~~WWWWWWWWWW
    /\/\/\CC/\/\~~{}{}~~~~~~/\/\/\~~~~~~~~~~~~~~~~~~. . . . . . . . . . . . . . . . . /\    /\/\/\""""""""{}{}/\          /\. /\                /\/\/\/\/\/\/\/\  /\/\{}{}{}.\.\.\.\.\{}{}{}{}{}{}~~~~~~~~~~~~WWWWWWWWWW
    /\. . . /\/\~~{}{}~~/\. ~~~~~~. . . . . . . . . ~~~~~~~~~~~~~~~~~~~~~~~~~~~~::~~~~/\/\  /\{}""""""~~~~~~~~{}/\/\      /\SD/\          /\/\/\/\{}{}/\{}{}{}/\/\/\.\.\.\.\.\~~~~~~~~~~~~{}{}{}~~~~~~~~~~~~~~~~~~WWWWWW
  /\/\/\. . /\/\~~{}{}~~/\/\/\/\/\. . . . . . . . . . . . . . . . . . . . . . {}. ~~~~~~/\/\/\""""~~~~~~~~~~~~~~{}/\  /\/\/\. /\        /\/\{}{}{}{}{}{}{}.\.\.\.\.\.\~~~~~~~~~~~~~~~~~~~~~~~~~~~~~~~~~~~~~~~~~~~~WWWWWW
  /\/\SM/\/\/\~~{}{}~~/\~~~~~~~~/\/\. DDDDDDDDDDDDDDDDDDDDDD[][][][][][][][]. . . {}~~""""""""""~~~~{}. ~~~~~~~~{}/\/\/\. . . /\    /\/\/\{}{}{}{}{}.\.\.\.\~~.\.\.\~~~~~~~~~~~~~~~~~~~~~~~~~~~~~~.\/\/\~~~~~~~~~~WWWWWW
  /\. /\~~~~~~/\/\/\~~""""~~""""~~/\. DD. . . . []. . . . DD. . . []. . . []. {}. {}~~~~~~~~~~~~~~~~~~~~~~~~~~~~~~"". . . /\/\/\/\/\/\{}{}{}{}{}\ .\.\.\.\~~~~~~~~~~~~~~~~~~~~~~~~~~~~~~~~~~~~~~.\.\.\/\/\~~~~~~~~WWWWWW
  /\. {}{}{}/\/\~~~~~~""""~~""""~~. . DD====CC==DD====CC==DD. . . []. . . []. . . . {}{}{}{}{}{}~~~~~~~~~~~~~~~~~~{}/\/\/\/\/\/\/\{}{}{}{}{}{}{}\ .\.\.\.\~~~~~~~~~~~~~~~~~~~~~~~~~~~~~~~~~~~~~~~~.\/\/\{}.\~~~~~~WWWWWW
  /\/\{}{}{}/\~~""""~~""""~~""""~~. . []. . . . []. . . . [][]--[][][]--[][]. {}. . . . . {}{}{}{}{}~~~~~~~~~~~~""{}/\/\/\/\/\/\{}{}{}{}{}{}{}{}{}.\.\.\.\.\~~~~~~~~~~~~~~~~~~~~~~~~~~~~~~~~~~~~~~~~.\{}.\~~~~~~~~WWWWWW
    /\{}{}{}{}~~""""~~""""~~""""~~. . []. . . . []. . . . []::::::::::::::[]. . . . . . . . . {}{}{}{}{}~~~~~~. . {}{}/\/\/\/\{}{}{}{}{}{}{}{}{}{}{}{}.\.\.\.\~~~~~~~~~~~~~~~~~~~~~~/\~~~~~~~~~~~~~~~~.\.\~~~~~~~~WWWWWW
    /\/\/\{}{}~~""""~~""""~~""""~~. . [][][]--[][][]--[][][]::~~~~~~~~~~::[]. {}. []. []. []. []. []. []. []. []. []{}/\/\/\/\{}{}{}{}{}.\.\.\.\{}{}{}{}{}.\.\.\.\~~~~~~~~~~~~~~~~~~~~~~/\~~~~~~~~~~~~~~~~~~~~~~~~WWWWWW
      /\/\""{}~~~~~~~~~~~~~~~~~~~~. . {}{}{}::{}o {}::{}{}[]::~~~~. ~~~~::[]. . . . . . . . . . . . . . . . . . . . {}/\/\/\{}{}{}{}.\.\.\.\.\.\.\.\.\.\.\.\.\.\~~~~~~~~~~~~~~~~~~~~~~~~/\/\~~~~~~~~~~~~~~~~~~~~~~WWWWWW
    /\/\/\{}{}~~""""~~""""~~""""~~. . {}{}{}::::::::::::::| ::~~~~~~~~~~::[]. {}. []. DDDDDDDDDDDDDDDDDDDDDDDDDD. []{}{}/\/\{}{}.\.\.\.\.\~~~~.\.\.\.\.\.\.\.\~~~~~~~~~~~~~~~~~~~~~~~~/\/\~~~~~~~~~~~~~~~~~~~~~~~~WWWWWW
    /\/\""{}{}~~""""~~""""~~""""~~/\. {}{}{}{}{}::{}{}{}{}[]::::::::::::::[]. . . . . DD. . . []. . . []. . . DD. . . {}{}{}{}{}.\.\.\.\~~~~~~~~~~~~~~~~~~.\.\.\~~~~~~~~~~~~~~/\~~~~~~~~~~~~~~~~~~~~~~~~~~~~~~~~~~WWWWWW
    /\/\""{}/\~~""""~~""""~~""""~~/\. {}{}{}{}[]::[]{}{}{}[][][][][][][][][]. {}. []. DDDDCCDDDDDDCCDDDDDDCCDDDD. []. {}{}{}{}{}.\.\.\~~~~~~~~~~~~~~~~~~~~~~~~~~~~~~~~~~~~~~/\/\/\~~~~~~~~~~~~~~~~~~~~~~~~~~~~~~~~WWWWWW
    /\/\/\{}/\~~""""~~""""~~""""~~/\. . . . . . . . . . . . . . . . . . . . . . . . . DD. . . DD. . . DD. . . DD. . . . {}{}{}{}.\.\.\~~~~~~~~~~~~~~~~~~~~~~~~~~~~~~~~~~~~~~~~~~/\/\~~/\/\/\/\~~~~~~~~~~~~~~~~~~~~WWWWWW
      /\/\{}/\/\~~~~~~~~~~~~~~~~/\/\/\. {}. {}. {}. {}. {}. {}. {}. {}. {}. {}. DDDDDDDD. . . DD. . . DD. . . DDDDDDDD. {}{}{}{}.\.\.\.\~~~~~~~~~~.\~~~~~~~~~~~~~~~~~~~~~~~~/\/\/\/\/\/\{}{}/\/\~~~~~~/\/\~~~~~~~~WWWWWW
      /\""""""/\/\/\/\/\/\/\/\/\/\. /\. . . . . . . . . . . . . . . . . . . . . DDo . DDDD--DDDDDD--DDDDDD--DDDD. upDD. {}{}{}{}{}.\.\.\~~~~~~~~~~{}.\.\.\~~~~~~~~~~~~~~/\/\/\{}{}{}{}{}{}{}[]/\/\~~/\/\/\/\/\~~~~WWWWWW
      /\/\/\"""""". . . /\/\/\/\. . . . . . . . ~~~~~~~~. . . . . ~~~~. {}. {}. | . . . . . . . . . . . . . . . . . DD. {}{}{}{}{}{}.\.\.\~~~~~~~~{}{}.\.\~~~~~~~~/\/\/\/\{}{}. . {}{}{}{}{}| . /\/\/\{}{}.\/\~~~~WWWWWW
      /\/\/\/\/\/\/\. . . . . . . ~~~~~~~~~~~~~~~~~~~~~~~~~~. . ~~/\/\~~. . . . | . . . . . . . . . . . . . . . . . DD. {}{}{}{}{}{}.\.\.\.\~~~~~~.\.\.\~~.\~~~~/\/\{}{}{}. . . . . {}{}{}{}/\. /\/\{}{}.\.\.\.\~~WWWWWW
      /\/\/\/\/\.\.\. . ~~~~~~~~~~~~~~~~~~. . . . ~~~~~~~~~~. ~~/\{}{}/\~~. {}. DD. . DDDD--DDDDDD--DDDDDD--DDDD. upDD. {}{}{}{}{}.\.\.\.\~~~~~~~~~~~~~~~~~~~~/\/\{}. . . /\/\/\/\/\/\{}{}{}{}/\/\{}{}{}.\.\.\~~~~WWWWWW
      /\/\/\. . . /\/\~~~~~~~~~~~~~~{}. . . . . . . . . . ~~. ~~/\{}{}/\~~. . . DDDDDDDD. . . DD. . . DD. . . DDDDDDDD. {}{}{}{}{}.\.\.\.\~~~~~~~~~~~~~~~~~~~~/\{}. . . {}{}{}/\{}~~/\{}{}{}{}/\/\{}{}.\.\.\.\~~~~WWWWWW
      /\/\. . /\/\/\/\~~~~~~~~~~{}{}{}[][]--[][]--[][]{}. ~~. . ~~/\/\~~. . {}. . . . DD. . . DD. . . DD. . . DD. . . . {}{}{}{}.\.\.\~~~~~~~~~~~~~~~~~~~~~~/\/\/\. . /\/\{}{}/\{}~~/\{}. {}{}/\/\{}{}.\.\.\.\.\~~WWWWWW
        /\. /\/\  /\/\~~~~~~~~/\{}{}{}[]. . [][]. MR[]{}. . . . . ~~~~. . . . . . []. DDDDCCDDDDDDCCDDDDDDCCDDDD. []. {}{}{}{}.\.\.\~~~~~~~~~~~~~~~~~~~~~~~~~~/\. /\/\/\{}{}/\{}~~{}/\. . {}/\/\{}{}{}.\.\.\.\.\~~WWWWWW
        /\. /\    /\/\~~~~~~~~/\{}{}{}[]. . [][]. . []{}{}. . . . . . . . . . {}. . . DD. . . []. . . []. . . DD. . . {}{}{}.\.\~~~~~~~~~~~~~~~~~~~~~~~~~~~~~~/\/\/\{}{}{}{}/\~~. {}/\. . {}/\/\""/\{}{}.\.\.\.\~~WWWWWW
  /\/\/\/\. /\    /\c1~~~~~~~~/\{}{}{}[]. . [][]. . []{}{}{}{}{}{}{}~~~~. . . {}. []. DDDDDDDDDDDDDDDDDDDDDDDDDD. []. {}{}.\.\~~~~~~~~~~~~~~~~~~~~~~~~/\/\/\~~~~. /\{}{}{}/\~~. /\{}/\. . {}/\/\""""/\/\{}.\.\~~~~WWWWWW
  /\(). . . /\    /\/\/\~~~~~~/\/\{}{}[][][][][][][][]{}{}{}{}~~~~~~~~~~. .\{}{}. . . . . . . . . . . . . . . . . . . {}{}.\.\~~~~~~~~~~~~~~~~~~~~/\/\{}~~~~~~~~. /\{}{}{}{}~~. . /\. . {}{}{}/\/\"""""".\.\.\~~~~WWWWWW
  /\/\/\/\. /\        /\~~~~~~~~/\/\/\{}{}{}{}{}{}{}{}{}~~~~~~~~~~~~~~~~~~.\{}{}. []. []. []. []. []. []. []. []. []. {}.\.\.\~~~~~~~~~~~~~~~~~~~~~~~~/\{}~~~~~~/\/\{}/\/\/\/\~~~~~~{}. {}{}{}{}/\/\/\/\.\.\~~~~~~WWWWWW
        DD--DD        /\~~~~~~~~~~~~/\{}/\/\/\/\/\~~~~~~~~~~~~~~~~~~~~~~~~.\{}{}. . . . . . . . . . . . . . . . . . . .\.\.\~~~~~~~~~~~~~~~~~~~~~~/\/\{}.\.\~~/\/\. /\/\~~~~/\/\~~~~~~{}{}.\.\.\.\.\.\.\.\.\~~~~~~WWWWWW
        DD. DD        /\~~~~~~~~~~~~/\/\/\~~~~~~~~~~~~~~~~~~~~~~~~~~~~~~~~.\{}{}{}{}{}{}{}{}{}{}{}{}{}{}{}{}{}{}{}{}.\.\.\~~~~~~~~~~~~~~~~~~/\/\/\{}{}~~~~~~~~~~/\/\/\~~~~~~~~/\/\~~~~{}.\.\.\.\.\.\.\.\~~~~~~~~~~WWWWWW
      DDDD--DDDD      /\~~~~~~~~~~~~~~~~~~~~~~~~~~~~~~~~~~~~~~~~~~~~~~~~~~.\.\{}{}{}{}{}{}{}{}{}{}{}{}{}.\.\.\.\.\.\.\~~~~~~~~~~~~~~~~~~/\/\{}.\~~~~~~~~~~~~~~~~~~~~~~~~~~~~~~~~/\/\/\{}.\.\.\.\.\.\~~~~~~~~~~~~~~WWWWWW
    DDDD. . . DDDD    /\~~~~~~~~~~~~~~~~~~~~~~~~~~~~~~~~~~~~~~~~~~~~~~~~~~~~.\{}{}{}{}{}{}{}{}{}{}.\.\.\.\~~~~~~~~~~~~~~~~~~~~~~~~/\/\/\{}{}.\.\{}~~~~~~~~~~~~~~~~~~~~~~~~~~~~~~~~~~/\/\/\.\.\~~~~~~~~~~~~~~~~~~~~WWWWWW
DDDDDD. . . . . DDDDDD/\/\~~~~~~~~~~~~~~~~~~~~~~~~~~~~~~~~~~~~~~~~~~~~~~~~~~.\.\{}{}{}{}{}.\.\.\.\.\~~~~~~~~~~~~~~~~~~~~~~~~~~~~~~~~~~~~/\.\.\~~~~~~~~~~~~~~~~~~~~~~~~~~~~~~~~~~~~~~~~/\/\.\~~~~~~~~~~~~~~~~~~~~~~WWWWWW
DD. | . . MM. . | . DD  /\.\.\~~~~~~~~~~~~~~~~~~~~~~~~~~~~~~~~~~~~~~~~~~~~~~.\.\.\{}{}.\.\.\~~~~~~~~~~~~~~~~~~~~~~~~~~~~~~~~~~~~~~~~/\{}{}~~/\/\~~~~~~~~~~~~~~~~~~~~~~~~~~~~~~~~~~~~~~~~/\.\~~~~~~~~~~~~~~~~~~~~~~WWWWWW
DDDDDD. . . . . DDDDDD  /\.\.\.\.\~~~~~~~~~~~~~~~~~~~~~~~~~~~~~~~~~~~~~~~~~~~~.\.\.\.\.\~~~~~~~~~~~~~~~~~~~~~~~~~~~~~~~~~~~~~~~~/\~~~~~~~~~~~~~~~~~~~~~~~~~~~~~~~~~~~~~~~~~~~~~~~~~~~~~~/\~~~~~~~~~~~~~~~~~~~~~~~~WWWWWW
    DDDD. . . DDDD      /\/\.\.\.\.\.\.\~~~~~~~~~~~~~~~~~~~~~~~~~~~~~~~~~~~~~~.\.\.\~~~~~~~~~~~~~~~~~~~~~~~~~~~~~~~~~~~~~~~~~~~~~~~~~~~~~~~~~~~~~~~~~~~~~~~~~~~~~~~~~~~~~~~~~~~~~~~~~~~~/\~~~~~~~~~~~~~~~~~~~~~~~~WWWWWW
      DDDD--DDDD          /\/\/\/\.\.\.\.\.\.\.\.\~~~~~~~~~~~~~~~~~~~~~~~~~~~~~~~~~~~~~~~~~~~~~~~~~~~~~~~~~~~~~~~~~~~~~~~~~~~~~~~~~~~~~~~~~~~~~~~~~~~~~~~~~~~~~~~~~~~~~~~~~~~~~~~~~~~~~~~~~~~~~~~~~~~~~~~~~~~~~~~~WWWWWW
        DD. DD                  /\/\/\/\/\/\/\/\.\.\.\.\.\.\.\.\WWWWWWWWWWWWWWWWWWWWWWWWWWWWWWWWWWWWWWWWWWWWWWWWWWWWWWWWWWWWWWWWWWWWWWWWWWWWWWWWWWWWWWWWWWWWWWWWWWWWWWWWWWWWWWWWWWWWWWWWWWWWWWWWWWWWWWWWWWWWWWWWWWWWWWWW
        DDDDDD                                /\/\/\/\/\/\/\/\/\/\WWWWWWWWWWWWWWWWWWWWWWWWWWWWWWWWWWWWWWWWWWWWWWWWWWWWWWWWWWWWWWWWWWWWWWWWWWWWWWWWWWWWWWWWWWWWWWWWWWWWWWWWWWWWWWWWWWWWWWWWWWWWWWWWWWWWWWWWWWWWWWWWWWWWWW
                                                              WWWWWWWWWWWWWWWWWWWWWWWWWWWWWWWWWWWWWWWWWWWWWWWWWWWWWWWWWWWWWWWWWWWWWWWWWWWWWWWWWWWWWWWWWWWWWWWWWWWWWWWWWWWWWWWWWWWWWWWWWWWWWWWWWWWWWWWWWWWWWWWWWWWWWWWWWW
<z>-110</z> <x>0</x> <y>52</y> // Torii Mines - Thisson Lair -110'
                    /\/\/\/\/\/\                                          /\/\/\/\/\/\    
            /\/\/\/\/\. . . . /\/\/\                                      /\*5*5*5MM/\    
      /\/\/\/\. . . /\/\. . . . . /\/\                                    /\*5*5*5*5/\    
    /\/\. . . . . . . . /\/\. /\/\. /\                                  /\/\*5*5*5*5/\    
    /\. . . /\/\. . . . . /\/\. /\. /\/\/\                            /\/\*5*5*5*5*5/\    
    /\. . . . /\/\/\. . . . . . . /\. . /\          /\/\/\/\          /\*5*5*5*5*5*5/\    
    /\/\. . . . /\/\/\/\/\. . /\. . . . /\/\/\  /\/\/\*5*5/\      /\/\/\*5*5*5*5*5/\/\    
      /\. . . /\/\. /\. . /\. . . . /\. . . /\/\/\*5*5*5*5/\/\/\/\/\*5*5*5*5*5*5*5/\      
  /\/\/\/\/\. . . . . . /\. . . . . /\. . . . . *5*5*5*5*5*5/\/\*5*5*5*5*5*5*5*5*5/\      
  /\. . . /\/\. . . . /\/\. . . . /\. /\. /\. /\. . *5*5*5*5*5*5*5/\*5*5*5*5*5/\/\/\      
/\/\. . /\/\. . . . /\/\. . . . . /\. /\. /\. . . . . *5*5. . pb/\*5/\/\*5*5/\/\          
/\. . . /\. . . . . /\/\. . /\/\/\. . . . . /\/\/\. . . . /\/\/\/\*5*5*5*5*5/\/\/\        
/\. . /\. . . . . . /\. /\. . /\. . . . . . /\. . /\. . /\/\. . . /\*5*5/\/\/\*5/\        
/\/\. . . /\. . /\/\/\. . . . /\. . . /\. /\*5. . /\/\/\*5. . . . /\/\/\*5*5/\*5/\/\/\    
  /\. /\. . . /\/\. . . /\/\. . . . . . /\. . . . . /\. . /\/\. /\*5*5*5*5*5/\*5*5*5/\    
  /\/\. /\. . . . . /\/\. . /\. . /\/\/\/\/\. . /\. . . /\/\. . *5*5*5*5*5/\/\*5*5/\/\    
    /\. /\. /\. . . . . . /\. . /\/\. . . . . . . . /\. /\. . . *5*5/\/\/\/\*5*5/\/\      
    /\/\/\. . /\/\/\. . . /\. . . . /\/\. . /\. *5*5/\. /\. . *5*5*5*5*5/\. . . /\        
      /\. . . . . . . . . . . /\/\/\/\. . /\. *5*5/\*5. . . . . *5*5*5/\*5. . . /\/\/\/\/\
    /\/\. /\. . /\. /\/\. /\/\/\*5*5. . /\/\. /\/\. . . /\/\. . . *5*5/\*5. . . *5*5*5*5/\
  /\/\. . /\/\/\. /\/\. /\/\*5*5*5. . . /\. . . . . . . . /\. /\. . *5/\*5*5*5*5*5/\/\/\/\
  /\. . . /\. /\/\. /\. /\*5*5*5*5. . . /\. . . . /\/\. . /\. . /\/\*5/\/\*5*5/\/\/\      
  /\. . /\. . . /\. /\. . . . . . *5/\. /\/\/\/\. . /\/\. . . . . /\/\/\/\*5/\/\          
  /\. . /\. . . /\. . . . . . /\/\*5/\. . /\. . *5. . /\. . /\/\/\. /\/\/\/\/\            
  /\. . . /\. /\. . . . /\/\/\/\*5*5/\/\. . . . /\/\/\. . /\. . . . /\*5*5/\              
  /\. . . /\/\/\. . /\/\. . *5*5*5*5*5*5/\. . /\. . /\/\/\. . . . . *5*5/\/\/\            
  /\/\. . . /\. . . /\*5*5*5. . . *5*5*5*5*5. . /\. . . . . . . *5*5*5/\. . /\/\          
    /\/\. /\/\. . . *5. . . /\. . . /\/\*5*5*5*5*5*5. . . *5*5*5*5. . . . . . /\/\        
      /\. . /\/\*5*5*5*5. /\/\/\. . . /\/\*5*5*5/\*5*5*5*5*5. . . . . . *5. . *5/\        
    /\/\. . . /\*5*5*5. . . . /\/\/\/\. /\/\/\*5*5/\*5*5/\. . *5*5/\/\. /\/\. *5/\/\      
    /\. . . . /\/\/\*5/\. /\. . . . . . . . . . *5*5*5/\. . *5/\/\. *5/\/\. . *5*5/\      
    /\. . . . . . /\/\/\. . . /\. /\/\. . . /\. /\/\/\. . . /\. . . . . . . . . *5/\      
    /\/\/\. . . . . . /\/\. /\. . . . /\/\/\. . . . . /\/\/\/\. . /\. . . *5. . *5/\      
        /\. /\/\/\. . . . . /\. . /\. . . . /\/\/\. . . . . . . . *5/\/\/\. . *5*5/\      
        /\/\/\  /\/\. . . /\/\/\/\. . . . /\/\. . /\/\/\/\/\/\. . . . . . /\*5/\/\/\      
                  /\/\/\/\/\    /\/\/\. . . . /\/\/\        /\/\/\/\/\. . *5/\/\          
                                    /\/\. . . /\                    /\/\/\/\/\            
                                      /\/\/\/\/\                                          
<z>20</z> <x>49</x> <y>0</y> // Torii temple 20'
                                  DDDDDDDDDDDD                                  
  DDDDDDDDDDDDDDDDDDDDDDDDDDDDDDDDDDpb. . . DDDDDDDDDDDDDDDDDDDDDDDDDDDDDDDDDDDD
  DD. . . . . . . . . . . . . . . . . . . . . . . . . . . . . . . . . . . . . DD
  DD. . . . . . . . . . . . . . . . . . . . . . . . . . . . . . . . . . . . . DD
  DD. []. []. []. []. []. []. []. []. [][]. []. []. []. []. []. []. []. []. . DD
  DD. . . . . . . . . . . . . . . . . [][]. . . . . . . . . . . . . . . . . . DD
  DD. []. . . . . . . . . . . . . . . . . . . . . . . . . . . . . . . . []. . DD
  DD. . . {}{}{}{}{}{}{}. [][][]DDDDDDDDDDDDDDDD[][][]. {}{}{}{}{}{}{}. . . . DD
  DD. []. {}{}{}{}{}{}{}. []. MMDD. | . . | . DD. . []. {}{}{}{}{}{}{}. []. . DD
  DD. . . {}{}. /\. {}{}. []. . DD[][]. . [][]DD. /\[]. {}{}. . . {}{}. . . . DD
  DD. []. {}{}/\""/\{}{}. []/\. DDDDDDMMmmDDDDDD. . []. {}{}. ~~~~{}{}. []. . DD
  DD. . . {}{}/\/\/\{}{}. []. . []. . . . . . []. . []. {}{}~~{}~~{}{}. . . . DD
  DD. []. {}{}/\/\/\{}{}. []. . | . . . . . . | . . []. {}{}~~~~~~{}{}. []. . DD
  DD. . . {}{}{}{}{}{}{}. [][][][][][]----[][][][][][]. {}{}{}{}{}{}{}. . . . DD
  DD. []. {}{}{}{}{}{}{}. {}{}{}{}{}{}. . {}{}{}{}{}{}. {}{}{}{}{}{}{}. []. . DD
  DD. . . . . . . . . . . {}{}{}{}{}{}. . {}{}{}{}{}{}. . . . . . . . . . . . DD
  DD. []{}[][][][][][][][][]{}{}{}{}{}. . {}{}{}{}{}[][][][][][][][][]{}[]. . DD
  DD. . {}[]. . . . . . . []{}{}{}{}{}. . {}{}{}{}{}[]. . . []. . . []{}. . . DD
  DD. []{}[]. [][][][][]. []{}{}[][][]. . [][][]{}{}[]. . . []. . . []{}[]. . DD
  DD. . {}[]. []. . . []. []{}{}[][][]. . [][][]{}{}[]. . . []. . . []{}. . . DD
  DD. []{}[]. | . MM. []. []{}{}[][]up. . up[][]{}{}[]--[][][][][]--[]{}[]. . DD
  DD. . {}[][][][][][][]. | . . . . . [][]. . . . . | . . . . . . . []{}. . . DD
  DD. []{}[][][][][][][]. | . . . . . [][]. . . . . | . . . . . . . []{}[]. . DD
  DD. . {}[]. | . MM. []. []{}{}[][]. . . . [][]{}{}[]--[][][][][]--[]{}. . . DD
  DD. []{}[]. []. . . []. []{}{}[][][]. . [][][]{}{}[]. . . []. . . []{}[]. . DD
  DD. . {}[]. [][][][][]. []{}{}[][][]. . [][][]{}{}[]. (). []. . . []{}. . . DD
  DD. []{}[]. . . . . . . []{}{}{}{}{}. . {}{}{}{}{}[]. . . []. . . []{}[]. . DD
  DD. . {}[][][][][][][][][]{}{}{}{}{}. . {}{}{}{}{}[][][][][][][][][]{}. . . DD
  DD. []{}{}{}{}{}{}{}{}{}{}{}{}{}{}{}. . {}{}{}{}{}{}{}{}{}{}{}{}{}{}{}[]. . DD
  DD. . {}{}{}{}{}{}{}{}{}{}{}{}[][][]----[][][]{}{}{}{}{}{}{}{}{}{}{}{}. . . DD
  DD. []. []. []. []. []. []. [][]. . . . . . [][]. []. []. []. []. []. []. . DD
  DD. . . . . . . . . . . . . . . . []----[]. . . . . . . . . . . . . . . . . DD
  DD. . . . . . . . . . . . . . [][][]. . [][][]. . . . . . . . . . . . . . . DD
DDDDDDDDDDDDDDDDDDDDDDDDDDDDDDDDDD. . . . . . DDDDDDDDDDDDDDDDDDDDDDDDDDDDDDDDDD
                                DDDDDD. . DDDDDD                                
                                %%%%DD. . DD%%%%                                
                                %%%%DD. . DD%%%%                                
                                %%%%DDdndnDD%%%%
                                %%%%%%%%%%%%%%%%
                                %%%%%%%%%%%%%%%%                                
<z>40</z> <x>63</x> <y>0</y> // Bell Tower 40'
%%%%%%DDDDDDDDDDDD%%%%%%
%%%%%%DD(). . . DD%%%%%%
%%%%%%. . . . . . %%%%%%
%%%%%%DD. . . . DD%%%%%%
%%%%%%DDDD. . DDDD%%%%%%
%%%%%%%%%%. . %%%%%%%%%%
%%%%%%%%%%%%%%%%%%%%%%%%
%%%%%%%%%%%%%%%%%%%%%%%%
%%%%%%%%%%%%%%%%%%%%%%%%
<z>20</z> <x>82</x> <y>48</y> // Vault
DDDDDDDDDD
DD. . . DD
DD. . . DD
DDDD--DDDD
DDDD. DDDDDD
DD::::::dnDD
DD::::::::DD
DD::::::::DD
DD::::::dnDD
DDDD. DDDDDD
DDDD--DDDD
DDo . . DD
DDDDLKDDDD
  DDDDDD
<z>-20</z> <x>88</x> <y>31</y> // Crypt Level -1                  
/\/\/\/\/\/\/\
/\/\[][][]/\/\
/\[][]. [][]/\
/\[]. . . []/\
/\[]. . . []/\
/\[][]--[][]/\
/\/\[]up[]/\/\
/\/\[][][]/\/\
/\/\/\/\/\/\/\
<z>30</z> <x>59</x> <y>15</y> // Torii Pagoda level 2
            %%%%%%%%%%%%%%%%
            %%%%%%%%%%%%%%%%
            %%%%%%%%%%%%%%%%
      %%%%%%[][][]. . [][][]%%%%%%
      %%%%%%[]. . . . . . []%%%%%%
%%%%%%%%%%%%[]. dn. . dn. []%%%%%%
      %%%%%%. . . /\/\. . . %%%%%%
      %%%%%%. . . /\/\. . . %%%%%%
      %%%%%%[]. . . . . . []%%%%%%
      %%%%%%[]up. . . . {_[]%%%%%%
      %%%%%%[][][]. . [][][]%%%%%%
            %%%%%%%%%%%%%%%%
            %%%%%%%%%%%%%%%%
            %%%%%%%%%%%%%%%%
<z>40</z> <x>59</x> <y>15</y> // Torii Pagoda Level 3
            %%%%%%%%%%%%%%%%
            %%%%%%%%%%%%%%%%
            %%%%%%%%%%%%%%%%
      %%%%%%[][][]. . [][][]%%%%%%
      %%%%%%[]. . . . . up[]%%%%%%
%%%%%%%%%%%%[]. . . . . . []%%%%%%
      %%%%%%. . . *2*2. . . %%%%%%
      %%%%%%. . . *2*2. . . %%%%%%
      %%%%%%[]. . . . . . []%%%%%%
      %%%%%%[]dn. . . . . []%%%%%%
      %%%%%%[][][]. . [][][]%%%%%%
            %%%%%%%%%%%%%%%%
            %%%%%%%%%%%%%%%%
            %%%%%%%%%%%%%%%%
<z>60</z> <x>59</x> <y>15</y> // Torii Pagoda Level 4
            %%%%%%%%%%%%%%%%
            %%%%%%%%%%%%%%%%
            %%%%%%%%%%%%%%%%
      %%%%%%[][][]. . [][][]%%%%%%
      %%%%%%[]. . . . . dn[]%%%%%%
      %%%%%%[]. . . . . . []%%%%%%
%%%%%%%%%%%%. . . ~~~~. . . %%%%%%
      %%%%%%. . . ~~~~. . . %%%%%%
      %%%%%%[]. . . . . . []%%%%%%
      %%%%%%[]up. . . . . []%%%%%%
      %%%%%%[][][]. . [][][]%%%%%%
            %%%%%%%%%%%%%%%%
            %%%%%%%%%%%%%%%%
            %%%%%%%%%%%%%%%%
<z>80</z> <x>59</x> <y>15</y> // Torii Pagoda Level 5
            %%%%%%%%%%%%%%%%
            %%%%%%%%%%%%%%%%
            %%%%%%%%%%%%%%%%
      %%%%%%[][][]. . [][][]%%%%%%
      %%%%%%[]. . . . . . []%%%%%%
      %%%%%%[]. . . . . . []%%%%%%
      %%%%%%. . . %%%%. . . %%%%%%
%%%%%%%%%%%%. . . %%%%. . . %%%%%%
      %%%%%%[]. . . . . . []%%%%%%
      %%%%%%[]dn. . . . . []%%%%%%
      %%%%%%[][][]. . [][][]%%%%%%
            %%%%%%%%%%%%%%%%
            %%%%%%%%%%%%%%%%
            %%%%%%%%%%%%%%%%
<z>50</z> <x>9</x> <y>46</y> //Torii - Haunted Cliffs  (First Level)
          /\/\/\/\/\/\
          /\{}{}{}{}/\/\/\
        /\/\{}{}{}{}{}{}/\/\                  /\%%%%%%%%
        /\{}{}{}{}{}{}{}{}/\                  /\%%%%%%%%
        /\{}{}{}{}{}{}{}{}/\    /\/\/\/\    /\/\%%%%%%%%
        /\{}{}{}{}{}{}{}{}/\/\/\/\{}{}/\  /\/\{}{}%%%%%%%%
      /\/\{}{}{}{}{}{}{}{}{}{}{}{}{}{}/\/\/\{}{}{}%%%%%%%%%%%%%%%%%%
      /\{}{}{}{}{}{}{}{}{}{}{}{}{}{}{}{}{}{}{}{}{}%%%%%%%%%%%%%%%%%%
      /\{}{}{}{}{}{}{}{}{}{}{}{}{}{}{}{}{}{}{}{}{}{}%%%%%%%%%%%%%%%%%%
      /\{}{}{}{}{}{}{}{}{}{}{}{}{}{}{}{}{}{}{}{}{}{}{}{}{}{}{}%%%%%%%%
      /\/\{}{}{}{}{}{}{}{}{}{}{}{}{}{}{}{}{}{}{}{}{}{}{}{}{}{}%%%%%%%%
        /\{}{}{}{}{}{}{}{}{}{}{}{}{}{}{}{}{}DDDDDDDDDDDD{}{}{}{}%%%%%%
/\/\/\/\/\DDDDDDDDDDDDDDDDDDDDDDDDDDDDDDDDDDDD. . . . DD{}{}{}{}%%%%%%
          DD. . . . . []::::::::::::::::::::SD. . . . DD{}{}{}{}%%%%%%%%
          DD. . . . . []::[]::[][][][][][][][]. . . . DD{}{}{}{}%%%%%%%%
          DD. . . . . []::[]::[]. . . . . . []up. . . DD{}{}c0%%%%%%%%%%
          DD. . . . . []::[]::| . . . . . . [][][][]DDDD{}{}{}{}{}%%%%%%
          DD--[][][][][]::[]::[]. . . . . . []. . . DD{}{}{}{}{}{}%%%%%%
          DD. []::::::::::[]::[]. . . . . . []. . . DD{}{}{}{}{}{}%%%%%%
          DD. []::[][][][][]--[][][][][]. . []. . . DD{}{}{}{}{}{}%%%%%%%%
          DD. []::[]. . . | ::SD. . . []. . []. . . DD{}{}{}{}{}{}%%%%%%%%
        DDDD--[]::[]--[][][]::[]*2MM*2[]. . | . . . DD{}{}{}{}{}{}%%%%%%%%
        DD::::::::[]. . . []::[][][][][]. . [][][][]DD{}{}{}{}{}{}{}%%%%%%%%
        DD::~~::::[]. . . []::| . . . []. . . . . . | {}{}{}{}{}{}{}%%%%%%%%
        DD::[_::::[]. up. []::| . . . []. . . . . . | {}{}{}{}{}{}{}%%%%%%%%
        DD::::::::[]. . . []::[][][][][]. . [][][][]DD{}{}{}{}{}{}{}{}%%%%%%
        DDDD--[]::[]--[][][]::[]*2MM*2[]. . []. . . DD{}{}{}{}{}{}{}/\/\/\/\
          DD. []::[]. . . | ::SD. . . []. . | . . . DD{}{}{}{}{}{}{}/\
          DD. []::[][][][][]--[][][][][]. . []. . . DD{}{}{}{}{}{}{}/\
          DD. []::::::::::[]::[]. . . . . . []. . . DD{}{}{}{}{}{}/\/\
          DD--[][][][][]::[]::[]. . . . . . []. . . DD{}{}{}{}{}{}/\
          DD. . . . . []::[]::| . . . . . . [][][][]DDDD{}{}{}{}{}/\
          DD. . . . . []::[]::[]. . . . . . []up. . . DD{}{}{}{}{}/\
          DD. . . . . []::[]::[][][][][][][][]. . . . DD{}{}{}{}/\/\
          DD. . . . . []::| ::::::::::::::::SD. . . . DD{}{}{}{}/\
          DDDDDDDDDDDDDDDDDDDDDDDDDDDDDDDDDDDD. . . . DD{}{}{}{}/\
                            /\{}{}{}{}{}{}{}DDDDDDDDDDDD{}{}{}{}/\
                            /\{}{}/\/\/\/\{}{}{}{}{}{}{}{}{}/\/\/\
                            /\/\/\/\    /\/\/\/\/\/\c3/\/\/\/\
                                                  /\/\/\
<z>70</z> <x>9</x> <y>57</y> //Torii - Haunted Cliffs  (Second Level)
                                            DDDDDDDDDDDD
DDDDDDDDDDDDDDDDDDDDDDDDDDDDDDDDDDDDDDDDDDDDDD. . . . DD
          DD. . . | . . . . | . . . . . . . | . . . . DD
          DD. . . DDDDDDDDDDDD. . . . . . . DD. . . . DD
          DD. DD. DD. . . . DD. %%%%%%%%%%%%DDdn. . . DD
          DD. . . | . . . . DD. %%%%%%%%%%%%DDDD--DDDDDD
          DD. DD. DD. . . . DD. %%%%%%%%%%%%DD. . . DD  
          DD. . . DDDDDDDD--DD. %%%%%%%%%%%%DD. . . DD  
          DD. DD. DD. . DD. DDDDDDDDDDDD%%%%DD. . . DD  
          DD. . . | . . DD. DD. . . . DD%%%%DD. . . DD  
          DD. DD. DD. . DD. | . . . . DD%%%%DDDD--DDDD  
          DD. . . DDDDDDDDDDDDDDDDDD--DD%%%%DD. . . DD  
          DD. . . . . . | . . . | . . DD%%%%DD. . . DD  
          DD. . . . . dnDD. . . DD. . DD%%%%DD. . . DD  
          DD. . . DDDDDDDDDDDDDDDDDD--DD%%%%DD. . . DD  
          DD. DD. DD. . DD. | . . . . DD%%%%DDDD--DDDD  
          DD. . . | . . DD. DD. . . . DD%%%%DD. . . DD  
          DD. DD. DD. . DD. DDDDDDDDDDDD%%%%DD. . . DD  
          DD. . . DDDDDDDD--DD. %%%%%%%%%%%%DD. . . DD  
          DD. DD. DD. . . . DD. %%%%%%%%%%%%DD. . . DD  
          DD. . . | . . . . DD. %%%%%%%%%%%%DDDD--DDDDDD
          DD. DD. DD. . . . DD. %%%%%%%%%%%%DDdn. . . DD
          DD. . . DDDDDDDDDDDD. . . . . . . DD. . . . DD
          DD. . . | . . . . | . . . . . . . | . . . . DD
          DDDDDDDDDDDDDDDDDDDDDDDDDD_]DDDDDDDD. . . . DD%%%%
                            /\%%%%%%::%%%%%%DDDDDDDDDDDD%%%%
                            /\%%%%""""""""%%%%%%%%%%%%%%%%
                            /\/\. ""{}. . {}{}{}. . c2~~/\
                              /\/\/\/\/\"". "". {}. . ~~/\
                                      /\/\/\/\"""". ""~~/\
                                        /\/\. . {}. . ~~/\
                                        /\"". . . . ~~{}/\
                                        /\/\. {}. {}~~{}/\
                                          /\/\/\. c3~~""/\
                                              /\/\/\~~. /\/\/\
                                                  /\/\. ""{}/\
                                                    /\/\/\/\/\
<z>90</z> <x>9</x> <y>84</y> //Torii - Haunted Cliffs  (Thrid Level)
/\/\/\/\/\/\/\/\/\/\/\/\/\/\/\/\/\/\/\/\/\%%%%%%%%%%%%%%%%/\
                                    /\/\""""{}""%%%%%%%%%%/\
                                    /\""""{}""%%%%%%%%%%%%/\
                                    /\/\{}""%%%%%%%%%%%%%%/\
                                      /\{}""""%%%%%%%%%%%%/\
                                    /\/\[][][]""""%%%%%%%%/\
                                    /\. . . | ::::c2~~%%%%/\
                                    /\. . . ##~~~~~~""""/\/\
                                    /\/\/\/\/\/\/\/\/\/\/\/\